<?xml version="1.0" encoding="UTF-8"?>
<svg width="24px" height="17px" viewBox="0 0 24 17" version="1.1" xmlns="http://www.w3.org/2000/svg" xmlns:xlink="http://www.w3.org/1999/xlink">
    <!-- Generator: sketchtool 59 (101010) - https://sketch.com -->
    <title>18D752B0-D870-47F1-8A94-D7FF00A5E9D2@1,5x</title>
    <desc>Created with sketchtool.</desc>
    <g id="Page-1" stroke="none" stroke-width="1" fill="none" fill-rule="evenodd">
        <g id="home" transform="translate(-517.000000, -5814.000000)">
            <g id="Group-41" transform="translate(0.000000, 5792.000000)">
                <g id="Group-39" transform="translate(518.000000, 11.000000)">
                    <g id="icon_atendimento_online" transform="translate(0.000000, 12.000000)">
                        <path d="M4,7.55 C8.07859165,4.15283199 14.0014083,4.15283199 18.08,7.55" id="Path" stroke="#FFFFFF" stroke-width="2" stroke-linecap="round" stroke-linejoin="round"></path>
                        <path d="M0.42,4 C6.46647704,-1.32980039 15.533523,-1.32980039 21.58,4" id="Path" stroke="#FFFFFF" stroke-width="2" stroke-linecap="round" stroke-linejoin="round"></path>
                        <path d="M7.53,11.11 C9.61082675,9.63167327 12.3991733,9.63167327 14.48,11.11" id="Path" stroke="#FFFFFF" stroke-width="2" stroke-linecap="round" stroke-linejoin="round"></path>
                        <circle id="Oval" fill="#FFFFFF" cx="11" cy="15" r="1"></circle>
                        <line x1="11" y1="15" x2="11" y2="15" id="Path" stroke="#ffffff" stroke-width="2" stroke-linecap="round" stroke-linejoin="round"></line>
                    </g>
                </g>
            </g>
        </g>
    </g>
</svg>