<?xml version="1.0" encoding="UTF-8"?>
<svg width="20px" height="24px" viewBox="0 0 20 24" version="1.1" xmlns="http://www.w3.org/2000/svg" xmlns:xlink="http://www.w3.org/1999/xlink">
    <!-- Generator: sketchtool 59 (101010) - https://sketch.com -->
    <title>FBD5A466-690B-4E60-959D-61B93E36C4A0@1,5x</title>
    <desc>Created with sketchtool.</desc>
    <g id="Page-1" stroke="none" stroke-width="1" fill="none" fill-rule="evenodd" opacity="0.5" stroke-linecap="round" stroke-linejoin="round">
        <g id="contato" transform="translate(-211.000000, -671.000000)" stroke="#000000" stroke-width="2">
            <g id="map-pin-(10)" transform="translate(212.000000, 672.000000)">
                <path d="M18,9.00000013 C18,16.0000001 9,22.0000001 9,22.0000001 C9,22.0000001 0,16.0000001 0,9.00000013 C0,4.0294373 4.0294373,1.34110451e-07 9,1.34110451e-07 C13.9705627,1.34110451e-07 18,4.0294373 18,9.00000013 L18,9.00000013 Z" id="Path"></path>
                <circle id="Oval" cx="9" cy="9" r="3"></circle>
            </g>
        </g>
    </g>
</svg>