<?xml version="1.0" encoding="UTF-8"?>
<svg width="24px" height="20px" viewBox="0 0 24 20" version="1.1" xmlns="http://www.w3.org/2000/svg" xmlns:xlink="http://www.w3.org/1999/xlink">
    <!-- Generator: sketchtool 59 (101010) - https://sketch.com -->
    <title>A2E2CA7C-1468-468E-929A-2720AF8465BD@1,5x</title>
    <desc>Created with sketchtool.</desc>
    <g id="Page-1" stroke="none" stroke-width="1" fill="none" fill-rule="evenodd" stroke-linecap="round" stroke-linejoin="round">
        <g id="Empreendimento" transform="translate(-1044.000000, -2731.000000)" stroke="#FFFFFF" stroke-width="2">
            <g id="Group-6" transform="translate(1016.000000, 2719.000000)">
                <g id="Group-8" transform="translate(28.000000, 12.000000)">
                    <g id="download-cloud-(3)">
                        <polyline id="Path" points="8 15 12 19 16 15"></polyline>
                        <line x1="12" y1="10" x2="12" y2="19" id="Path"></line>
                        <path d="M20.88,16.09 C22.6641359,14.8353957 23.4291619,12.5690557 22.7703958,10.4898251 C22.1116296,8.41059447 20.1810938,6.99829391 18,7 L16.74,7 C15.9163145,3.78994369 13.198686,1.42008673 9.90640275,1.04088975 C6.61411951,0.661692769 3.42888903,2.35167313 1.89699969,5.2904202 C0.365110346,8.22916726 0.803758542,11.8081775 3,14.29" id="Path"></path>
                    </g>
                </g>
            </g>
        </g>
    </g>
</svg>