<?xml version="1.0" encoding="UTF-8"?>
<svg width="22px" height="15px" viewBox="0 0 22 15" version="1.1" xmlns="http://www.w3.org/2000/svg" xmlns:xlink="http://www.w3.org/1999/xlink">
    <!-- Generator: sketchtool 59 (101010) - https://sketch.com -->
    <title>144A127E-11C5-42F7-81F2-E51163D250BB@1,5x</title>
    <desc>Created with sketchtool.</desc>
    <g id="Page-1" stroke="none" stroke-width="1" fill="none" fill-rule="evenodd" stroke-linejoin="round">
        <g id="home" transform="translate(-788.000000, -801.000000)" stroke="#000000">
            <g id="destaque" transform="translate(255.000000, 505.000000)">
                <g id="Group-44" transform="translate(534.000000, 296.000000)">
                    <g id="iconfinder_sleep-bed-hotel-night-hostel-wellness-slumber-furniture_and_household-sleepy-zzz-sleeping-holidays_4394709" transform="translate(0.000000, 1.000000)">
                        <rect id="Rectangle" x="0" y="7.8" width="20" height="2.6"></rect>
                        <polyline id="Path" points="19.1666667 10.4 19.1666667 13 17.5 13 17.5 10.4"></polyline>
                        <polyline id="Path" points="2.5 10.4 2.5 13 0.833333333 13 0.833333333 10.4"></polyline>
                        <path d="M19.1666667,7.8 L19.1666667,6.06666667 C19.1666667,5.58801988 18.7935706,5.2 18.3333333,5.2 L1.66666667,5.2 C1.20642938,5.2 0.833333333,5.58801988 0.833333333,6.06666667 L0.833333333,7.8" id="Path"></path>
                        <path d="M16.6666667,5.2 L16.6666667,3.03333333 C16.6666667,2.79400994 16.4801186,2.6 16.25,2.6 L11.25,2.6 C11.0198814,2.6 10.8333333,2.79400994 10.8333333,3.03333333 L10.8333333,5.2" id="Path"></path>
                        <path d="M9.16666667,5.2 L9.16666667,3.03333333 C9.16666667,2.79400994 8.98011865,2.6 8.75,2.6 L3.75,2.6 C3.51988135,2.6 3.33333333,2.79400994 3.33333333,3.03333333 L3.33333333,5.2" id="Path"></path>
                        <path d="M18.3333333,5.2 L18.3333333,1.73333333 C18.3333333,0.776039767 17.5871412,0 16.6666667,0 L3.33333333,0 C2.41285875,0 1.66666667,0.776039767 1.66666667,1.73333333 L1.66666667,5.2" id="Path"></path>
                    </g>
                </g>
            </g>
        </g>
    </g>
</svg>