<?xml version="1.0" encoding="UTF-8"?>
<svg width="19px" height="14px" viewBox="0 0 19 14" version="1.1" xmlns="http://www.w3.org/2000/svg" xmlns:xlink="http://www.w3.org/1999/xlink">
    <!-- Generator: sketchtool 59 (101010) - https://sketch.com -->
    <title>F55BFDE9-108C-43EB-8F2D-C85009A90A77@1,5x</title>
    <desc>Created with sketchtool.</desc>
    <g id="Page-1" stroke="none" stroke-width="1" fill="none" fill-rule="evenodd" opacity="0.5">
        <g id="home" transform="translate(-1151.000000, -5530.000000)" fill="#000000" fill-rule="nonzero">
            <g id="Group-28" transform="translate(0.000000, 5406.000000)">
                <g id="Group-27" transform="translate(1104.000000, 55.000000)">
                    <g id="iconfinder_youtube_317714" transform="translate(47.000000, 69.000000)">
                        <path d="M9.64457729,-0.000713555272 C10.3740312,0.00150791811 13.7878851,0.0215011786 16.1514848,0.201440523 C16.5226946,0.246360539 17.3322288,0.251027554 18.0550485,1.0432533 C18.6246327,1.6476317 18.8099406,3.0203174 18.8099406,3.0203174 C18.8099406,3.0203174 19,4.63102084 19,6.24230767 L19,6.24230767 L19,7.75208692 C19,9.36337374 18.8099406,10.9740772 18.8099406,10.9740772 C18.8099406,10.9740772 18.6240388,12.3461795 18.0550485,12.9493912 C17.3322288,13.7416169 16.5226946,13.7462839 16.1514848,13.7929541 C13.7878851,13.9708192 10.3707463,13.9961132 9.64056232,13.9995383 L9.45316471,13.9995791 C8.94655674,13.9943077 4.47279328,13.9440653 3.03976243,13.7999546 C2.61688028,13.7171151 1.66836511,13.7410335 0.944951547,12.9488078 C0.375367302,12.3455961 0.190059394,10.9734938 0.190059394,10.9734938 C0.190059394,10.9734938 0,9.36337374 0,7.75150354 L0.000962395656,6.04050287 C0.0155083186,4.49959192 0.190059394,3.0203174 0.190059394,3.0203174 C0.190059394,3.0203174 0.375961238,1.6476317 0.944951547,1.0432533 C1.66836511,0.251027554 2.47730541,0.246360539 2.84851516,0.201440523 C5.21158695,0.0215011786 8.62538216,0.00150791811 9.35482959,-0.000713555272 Z M7.12722726,3.49926978 L7.12722726,10.4997918 L13.0665833,6.9995308 L7.12722726,3.49926978 Z" id="Combined-Shape"></path>
                    </g>
                </g>
            </g>
        </g>
    </g>
</svg>